  {

  "indentation": {
    "regex": "^(\s+)",
    "skip": true
  },
  "keywords": {
    "regex": "^([a-z]{2,})\b",
    "list": {
      "self": [
        "as", "assert", "break", "case", "catch", "class", "const", "continue",
        "def", "default", "do", "else", "enum", "extens", "false", "finally", "for", "goto",
		"if", "implements", "import", "in", "instanceof", "interface", "new", "null",
		"package", "return", "super", "switch", "this", "throw", "throws", "trait", "true", "try", "while"
      ],
      "logic_operator": ["and", "or", "xor"]
    }
  },
  "ident": {
    "regex": "^(([a-zA-Z]\w*)|(_\w+))\b",
    "link": "arrayOfIdent",
    "name": "ident" 
  },
  "digit_const": {
    "regex": "^(\d+)(\.\d+){0,1}\b",
    "link": "arrayOfConst",
    "name": "digit_const" 
  },
  "string_const": {
    "regex": "^(\$){0,1}((\"(.*?)\")|(\'(.*?)\'))",
    "link": "arrayOfConst",
    "name": "string_const" 
  },
  "one_line_comment": {
    "regex": "\/\/(.*)",
    "skip": true
  },
  "multi_line_comment": {
    "regex": "\/\*([\s\S]*?)\*\/",
    "skip": true
  },  
  "operators": {
    "regex": "^(((<->)(=>))|([-_=+\*\/\|%>:<]){1,2})",
    "list": {
      "self": [":="],
      "comparison_operator": [">=", "<=", "<>", "=", ">", "<", "^="],
      "plus_minus": ["+", "-"],
      "mult_div": ["*", "/", "%"],
      "inc_dec": ["++", "--"],
      "exchange": ["<->"],
      "match_variant": ["|", "=>", "_"]
    }
  },
  // Nemerle с аннотацией типов, т.к. транслируется в JS тип пропускается
  "type":{
    "regex": "^: \w+((\[.*?\])|(\(.*?\))){0,1}",
    "skip": true
  },
  "separators": {
    "regex": "([\[\])(:,;.}{]{1})",
    "list": {
      "self": ["(", ")", ";", ":", ",", ".", "{", "}","[","]"]
    }
  }
}